{
  "project_info": {
    "project_number": "493043003889",
    "firebase_url": "https://zoa-app-185611.firebaseio.com",
    "project_id": "zoa-app-185611",
    "storage_bucket": "zoa-app-185611.appspot.com"
  },
  "client": [
    {
      "client_info": {
        "mobilesdk_app_id": "1:493043003889:android:71b04441d1def283",
        "android_client_info": {
          "package_name": "com.example.nada.zoa"
        }
      },
      "oauth_client": [
        {
          "client_id": "493043003889-8jq2a6ampa8dsdlq2htihoscq0ma2ls1.apps.googleusercontent.com",
          "client_type": 1,
          "android_info": {
            "package_name": "com.example.nada.zoa",
            "certificate_hash": "b933c5f6c12e17c571cac512048f187643e6c9c3"
          }
        },
        {
          "client_id": "493043003889-h72o6s0lc7obd8rn0qpou4hcjmd9sdcs.apps.googleusercontent.com",
          "client_type": 3
        },
        {
          "client_id": "493043003889-18jjdddn8jlh07fvgcpb6keblti5tpn3.apps.googleusercontent.com",
          "client_type": 3
        }
      ],
      "api_key": [
        {
          "current_key": "AIzaSyAPyMPowdERN30DFWmWFGBDrWhd8ZXdwbs"
        }
      ],
      "services": {
        "analytics_service": {
          "status": 1
        },
        "appinvite_service": {
          "status": 2,
          "other_platform_oauth_client": [
            {
              "client_id": "493043003889-h72o6s0lc7obd8rn0qpou4hcjmd9sdcs.apps.googleusercontent.com",
              "client_type": 3
            }
          ]
        },
        "ads_service": {
          "status": 2
        }
      }
    }
  ],
  "configuration_version": "1"
}